How consumers are using their fitness tracker Bellabeat case study with R
…
hourlyActivitySummary <- minuteActivityProcessed %>% 
  mutate(step_minutes = case_when(steps > 0 ~ 1,
                                  steps == 0 ~ 0),
         date = as_date(activity_minute),
         hour = hour(activity_minute),
         activity_hour = ymd_h(str_c(date, " ", hour))) %>% 
  group_by(id, activity_hour, intensity) %>% 
  summarise(steps = sum(steps),
            step_minutes = sum(step_minutes),
            active_minutes = n(),
            calories = sum(calories),
            mets = sum(mets)) %>% 
  mutate(distance = steps / 1312.33595801)

# # A tibble: 76,624 x 9
#        id activity_hour       intensity steps step_minutes active_minutes
#     <dbl> <dttm>                  <dbl> <dbl>        <dbl>          <int>
#  1 1.50e9 2016-03-12 00:00:00         0     0            0             60
#  2 1.50e9 2016-03-12 01:00:00         0     0            0             60
#  3 1.50e9 2016-03-12 02:00:00         0     0            0             60
#  4 1.50e9 2016-03-12 03:00:00         0     0            0             60
#  5 1.50e9 2016-03-12 04:00:00         0     0            0             60
#  6 1.50e9 2016-03-12 05:00:00         0     0            0             60
#  7 1.50e9 2016-03-12 06:00:00         0     0            0             60
#  8 1.50e9 2016-03-12 07:00:00         0     0            0             60
#  9 1.50e9 2016-03-12 08:00:00         0     0            0             60
# 10 1.50e9 2016-03-12 09:00:00         0     0            0             59
# # ... with 76,614 more rows, and 3 more variables: calories <dbl>,
# #   mets <dbl>, distance <dbl>
…
              values_from = c(steps, calories, mets, step_minutes, active_minutes, distance),
              values_fill = 0) %>% 
  mutate(total_steps = steps_0 + steps_1 + steps_2 + steps_3,
         total_calories = calories_0 + calories_1 + calories_2 + calories_3,
         total_mets = sum(mets_0 + mets_1 + mets_2 + mets_3),
         total_step_minutes = step_minutes_0 + step_minutes_1 + step_minutes_2 + step_minutes_3,
         total_distance = distance_0 + distance_1 + distance_2 + distance_3,
         week_days = wday(activity_hour, label = T, week_start = 1)) %>% 
  group_by(week_days, activity_hour = hour(activity_hour), id) %>% 
  summarise_all(list(mean)) %>% 
  group_by(week_days, activity_hour) %>% 
  summarise(across(!(id), list(average = mean))) %>% 
  mutate_if(is.numeric, ~round(., digits = 1))

# # A tibble: 168 x 31
#    week_days activity_hour steps_0_average steps_1_average
#    <ord>             <dbl>           <dbl>           <dbl>
#  1 Mon                   0             0              28.7
#  2 Mon                   1             0              13.6
#  3 Mon                   2             0               7.2
#  4 Mon                   3             0               5.6
#  5 Mon                   4             0              14.3
#  6 Mon                   5             0              33.8
#  7 Mon                   6             0             109. 
#  8 Mon                   7             0.1           259. 
#  9 Mon                   8             0.3           262. 
# 10 Mon                   9             0.1           273. 
# # ... with 158 more rows, and 27 more variables: steps_2_average <dbl>,
# #   steps_3_average <dbl>, calories_0_average <dbl>,
# #   calories_1_average <dbl>, calories_2_average <dbl>,
# #   calories_3_average <dbl>, mets_0_average <dbl>,
# #   mets_1_average <dbl>, mets_2_average <dbl>, mets_3_average <dbl>,
# #   step_minutes_0_average <dbl>, step_minutes_1_average <dbl>,
# #   step_minutes_2_average <dbl>, step_minutes_3_average <dbl>, ...
…
Create the sleepLogInfo data with more detail than the
sleepDay data

sleepLogInfo <- minuteSleep %>% 
  mutate(minutes_asleep = ifelse(value == 1, 1, 0)) %>% 
  group_by(id, log_id) %>% 
  summarise(total_minutes_asleep = sum(minutes_asleep),
            total_time_in_bed = n(),
            sleep_date = min(date),
            wake_date = max(date),
            date = as_date(min(date))) %>% 
  mutate(week_days = wday((sleep_date), label = TRUE, week_start = 1))

# # A tibble: 1,007 x 8
#          id  log_id total_minutes_a~ total_time_in_b~ sleep_date         
#       <dbl>   <dbl>            <dbl>            <int> <dttm>             
#  1   1.50e9 1.11e10              411              426 2016-03-13 02:39:30
#  2   1.50e9 1.11e10              354              386 2016-03-14 01:32:00
#  3   1.50e9 1.11e10              312              335 2016-03-15 02:36:00
#  4   1.50e9 1.11e10              272              303 2016-03-16 03:12:00
#  5   1.50e9 1.11e10               61               63 2016-03-16 19:43:00
#  6   1.50e9 1.12e10              402              437 2016-03-17 01:16:00
#  7   1.50e9 1.12e10              379              411 2016-03-18 01:36:00
#  8   1.50e9 1.12e10              447              468 2016-03-19 00:08:30
#  9   1.50e9 1.12e10              469              476 2016-03-20 01:08:00
# 10   1.50e9 1.12e10              390              427 2016-03-21 01:08:00
# # ... with 997 more rows, and 3 more variables: wake_date <dttm>,
# #   date <date>, week_days <ord>
…
