…
```{r, eval = FALSE}
name_before <- c()
name_after <- c()
for(i in dataList){
  i = eval(parse(text = i))
  name_before <- c(name_before, colnames(i))
  name_after <- c(name_after, colnames(clean_names(i)))
}
cleanNames <- data.frame(name_before, name_after)
remove(name_before, name_after, i)
```

```{}
# > tibble(cleanNames)
# # A tibble: 274 × 2
#    name_before              name_after
#    <chr>                    <chr>
#  1 Id                       id
#  2 ActivityDate             activity_date
#  3 TotalSteps               total_steps
#  4 TotalDistance            total_distance
#  5 TrackerDistance          tracker_distance
#  6 LoggedActivitiesDistance logged_activities_distance
#  7 VeryActiveDistance       very_active_distance
#  8 ModeratelyActiveDistance moderately_active_distance
#  9 LightActiveDistance      light_active_distance
# 10 SedentaryActiveDistance  sedentary_active_distance
# # … with 264 more rows
```
…
## 3.2 Data type

Notice that the `DATETIME` is used in this data is 12-hours format and that is recognized as character type, we need to convert it into the 24-hours format, and the `DATETIME` type

We need to convert data in `DATE` format

```{r, eval = FALSE}
dailyActivity$activity_date
```

```{}
# > tibble(dailyActivity$activity_date)
# # A tibble: 1,397 × 1
#    `dailyActivity$activity_date`
#    <chr>                        
#  1 3/25/2016                    
#  2 3/26/2016                    
#  3 3/27/2016                    
#  4 3/28/2016                    
#  5 3/29/2016                    
#  6 3/30/2016                    
#  7 3/31/2016                    
#  8 4/1/2016                     
#  9 4/2/2016                     
# 10 4/3/2016                     
# # … with 1,387 more rows
```

using `strptime()` with `%m/%d/%Y` argument

```{r, eval = FALSE}
ymd(format(strptime(dailyActivity$activity_date, "%m/%d/%Y")))
```

```{}
# > tibble(ymd(format(strptime(dailyActivity$activity_date,"%m/%d/%Y"))))
# # A tibble: 1,397 × 1
#    `ymd(format(strptime(dailyActivity$activity_date, "%m/%d/%Y")))`
#    <date>       
#  1 2016-03-25             
#  2 2016-03-26            
#  3 2016-03-27            
#  4 2016-03-28           
#  5 2016-03-29           
#  6 2016-03-30           
#  7 2016-03-31           
#  8 2016-04-01          
#  9 2016-04-02         
# 10 2016-04-03        
# # … with 1,387 more rows
```

and data as `DATETIME` format

```{r, eval = FALSE}
heartrateSeconds$time
```

```{}
# > tibble(heartrateSeconds$time)
# # A tibble: 3,638,339 × 1
#    `heartrateSeconds$time`
#    <chr>                  
#  1 4/1/2016 7:54:00 AM    
#  2 4/1/2016 7:54:05 AM    
#  3 4/1/2016 7:54:10 AM    
#  4 4/1/2016 7:54:15 AM    
#  5 4/1/2016 7:54:20 AM    
#  6 4/1/2016 7:54:25 AM    
#  7 4/1/2016 7:54:30 AM    
#  8 4/1/2016 7:54:35 AM    
#  9 4/1/2016 7:54:45 AM    
# 10 4/1/2016 7:54:55 AM    
# # … with 3,638,329 more rows
```

using `strptime()` with `%m/%d/%Y %I:%M:%S %p` argument

```{r, eval = FALSE}
ymd_hms(format(strptime(heartrateSeconds$time,"%m/%d/%Y %I:%M:%S %p")))
```

```{}
# > tibble(ymd_hms(format(strptime(heartrateSeconds$time,"%m/%d/%Y %I:%M:%S %p"))))
# # A tibble: 3,638,339 × 1
#    `ymd_hms(format(strptime(heartrateSeconds$time, "%m/%d/%Y %I:%M:%S %…`
#    <dttm>
#  1 2016-04-01 07:54:00
#  2 2016-04-01 07:54:05
#  3 2016-04-01 07:54:10
#  4 2016-04-01 07:54:15
#  5 2016-04-01 07:54:20
#  6 2016-04-01 07:54:25
#  7 2016-04-01 07:54:30
#  8 2016-04-01 07:54:35
#  9 2016-04-01 07:54:45
# 10 2016-04-01 07:54:55
# # … with 3,638,329 more rows
```
…
Then combine it, notice that mets variable is `me_ts`, we must rename it to `mets`

```{r, eval = FALSE}
minuteActivity <- minuteCaloriesNarrow %>% 
  inner_join(minuteIntensitiesNarrow, by = c("id", "activity_minute")) %>% 
  inner_join(minuteStepsNarrow, by = c("id", "activity_minute")) %>% 
  inner_join(minuteMETsNarrow, by = c("id", "activity_minute")) %>% 
  rename(mets = me_ts)
```

```{}
# > tibble(minuteActivity)
# # A tibble: 2,723,040 × 6
#            id activity_minute     calories intensity steps  mets
#         <dbl> <dttm>                 <dbl>     <dbl> <dbl> <dbl>
#  1 1503960366 2016-03-12 00:00:00    0.797         0     0    10
#  2 1503960366 2016-03-12 00:01:00    0.797         0     0    10
#  3 1503960366 2016-03-12 00:02:00    0.797         0     0    10
#  4 1503960366 2016-03-12 00:03:00    0.797         0     0    10
#  5 1503960366 2016-03-12 00:04:00    0.797         0     0    10
#  6 1503960366 2016-03-12 00:05:00    0.797         0     0    10
#  7 1503960366 2016-03-12 00:06:00    0.797         0     0    10
#  8 1503960366 2016-03-12 00:07:00    0.797         0     0    10
#  9 1503960366 2016-03-12 00:08:00    0.797         0     0    10
# 10 1503960366 2016-03-12 00:09:00    0.797         0     0    10
# # … with 2,723,030 more rows
```
first we check missing Datetime data

```{r, eval = FALSE}
minuteActivity %>% 
  #Create date, hour, minute to count
  group_by(date = as_date(activity_minute), hour = hour(activity_minute), minute = minute(activity_minute)) %>% 
  distinct(date) %>% 
  #Count minute by date and arrange results to ascending
  group_by(date) %>% 
  summarise(count_minute = n()) %>% 
  arrange(count_minute)
```

```{}
# # A tibble: 62 × 2
#    date       count_minute
#    <date>            <int>
#  1 2016-05-12          960
#  2 2016-03-12         1440
#  3 2016-03-13         1440
#  4 2016-03-14         1440
#  5 2016-03-15         1440
#  6 2016-03-16         1440
#  7 2016-03-17         1440
#  8 2016-03-18         1440
#  9 2016-03-19         1440
# 10 2016-03-20         1440
# # … with 52 more rows
```


Next we group by `id`

```{r, eval = FALSE}
minuteActivity %>% 
  group_by(id, date = as_date(activity_minute), hour = hour(activity_minute), minute = minute(activity_minute)) %>% 
  distinct(date) %>% 
  group_by(id, date) %>% 
  summarise(count_minute = n()) %>% 
  arrange(count_minute)
```

```{}
# # A tibble: 1,935 × 3
# # Groups:   id [35]
#            id date       count_minute
#         <dbl> <date>            <int>
#  1 7007744171 2016-05-07           60
#  2 6391747486 2016-04-09          180
#  3 1644430081 2016-04-10          240
#  4 4319703577 2016-05-12          240
#  5 2347167796 2016-04-29          360
#  6 5553957443 2016-05-12          600
#  7 5577150313 2016-04-11          600
#  8 6775888955 2016-04-09          600
#  9 6775888955 2016-05-07          600
# 10 1844505072 2016-05-12          660
# # … with 1,925 more rows
```
…
Figure out we got twelve of zero values in `calories` and thirteen of zero values in `mets`, to check that zero values are error or not, we also need to query both of previous and next values of zero values by filter

Filter the `calories` data

```{r, eval = FALSE}
minuteActivityProcessed %>% 
  filter(calories == 0 | lead(calories) == 0 | lag(calories) == 0)
```

```{}
# # A tibble: 36 × 6
#            id activity_minute     calories intensity steps  mets
#         <dbl> <dttm>                 <dbl>     <dbl> <dbl> <dbl>
#  1 1644430081 2016-03-28 23:58:00     1.41         0     0    10
#  2 1644430081 2016-03-28 23:59:00     0            0     0     0
#  3 1644430081 2016-03-29 00:00:00     1.41         0     0    10
#  4 1844505072 2016-04-09 23:58:00     2.99         1    29    32
#  5 1844505072 2016-04-09 23:59:00     0            0     0     0
#  6 1844505072 2016-04-10 00:00:00     1.12         0     0    12
#  7 7086361926 2016-04-05 17:56:00     1.47         0     0    13
#  8 7086361926 2016-04-05 17:57:00     0            0     0     0
#  9 7086361926 2016-04-05 17:58:00     6.34         2    86    56
# 10 7086361926 2016-04-07 17:54:00     6.56         2    69    58
# # … with 26 more rows
```

Filter the `mets` data

```{r, eval = FALSE}
minuteActivityProcessed %>% 
  filter(mets == 0 | lead(mets) == 0 | lag(mets) == 0)
```

```{}
# # A tibble: 39 × 6
#            id activity_minute     calories intensity steps  mets
#         <dbl> <dttm>                 <dbl>     <dbl> <dbl> <dbl>
#  1 1644430081 2016-03-28 23:58:00   1.41           0     0    10
#  2 1644430081 2016-03-28 23:59:00   0              0     0     0
#  3 1644430081 2016-03-29 00:00:00   1.41           0     0    10
#  4 1844505072 2016-04-09 23:58:00   2.99           1    29    32
#  5 1844505072 2016-04-09 23:59:00   0              0     0     0
#  6 1844505072 2016-04-10 00:00:00   1.12           0     0    12
#  7 4057192912 2016-03-30 06:57:00   3.21           1     8    26
#  8 4057192912 2016-03-30 06:58:00   0.0485         0     0     0
#  9 4057192912 2016-03-30 06:59:00   1.23           0     0    10
# 10 7086361926 2016-04-05 17:56:00   1.47           0     0    13
# # … with 29 more rows
```
…
```{r, eval = FALSE}
hourlyActivity <- hourlySteps %>% 
  inner_join(hourlyCalories, by = c("id", "activity_hour")) %>% 
  inner_join(hourlyIntensities, by = c("id", "activity_hour"))
```

```{}
# # A tibble: 46,008 × 6
#            id activity_hour       step_total calories total_intensity
#         <dbl> <dttm>                   <dbl>    <dbl>           <dbl>
#  1 1503960366 2016-03-12 00:00:00          0       48               0
#  2 1503960366 2016-03-12 01:00:00          0       48               0
#  3 1503960366 2016-03-12 02:00:00          0       48               0
#  4 1503960366 2016-03-12 03:00:00          0       48               0
#  5 1503960366 2016-03-12 04:00:00          0       48               0
#  6 1503960366 2016-03-12 05:00:00          0       48               0
#  7 1503960366 2016-03-12 06:00:00          0       48               0
#  8 1503960366 2016-03-12 07:00:00          0       48               0
#  9 1503960366 2016-03-12 08:00:00          0       48               0
# 10 1503960366 2016-03-12 09:00:00          8       49               1
# # … with 45,998 more rows, and 1 more variable: average_intensity <dbl>
```
…
  group_by(id, activity_date = as_date(activity_minute), intensity) %>% 
  summarise(steps = sum(steps),
            minutes = n(),
            calories = sum(calories)) %>% 
  pivot_wider(names_from = intensity, values_from = c("steps", "minutes", "calories"), values_fill = 0) %>% 
  mutate(total_steps = steps_0 + steps_1 + steps_2 + steps_3,
         calories = calories_0 + calories_1 + calories_2 + calories_3) %>% 
  select(id, activity_date,total_steps, minutes_0, minutes_1, minutes_2, minutes_3, calories) %>% 
  rename(sedentary_minutes = minutes_0,
         lightly_active_minutes = minutes_1,
         fairly_active_minutes = minutes_2,
         very_active_minutes = minutes_3)
```
```{}
# # A tibble: 1,891 × 8
#            id activity_date total_steps sedentary_minut… lightly_active_…
#         <dbl> <date>              <dbl>            <int>            <int>
#  1 1503960366 2016-03-12          19675             1056              266
#  2 1503960366 2016-03-13          17106             1106              216
#  3 1503960366 2016-03-14          10023             1142              260
#  4 1503960366 2016-03-15          15384             1037              348
#  5 1503960366 2016-03-16          13498             1122              246
#  6 1503960366 2016-03-17          14027             1082              311
#  7 1503960366 2016-03-18          14544             1152              214
#  8 1503960366 2016-03-19          15424             1114              240
#  9 1503960366 2016-03-20          15128             1046              360
# 10 1503960366 2016-03-21          10020             1122              302
# # … with 1,881 more rows, and 3 more variables:
# #   fairly_active_minutes <int>, very_active_minutes <int>,
# #   calories <dbl>
```
…
```{}
# # A tibble: 1,891 × 8
#            id activity_date total_steps sedentary_minut… lightly_active_…
#         <dbl> <date>              <dbl>            <int>            <int>
#  1 1503960366 2016-03-12          19675             1056              266
#  2 1503960366 2016-03-13          17106             1106              216
#  3 1503960366 2016-03-14          10023             1142              260
#  4 1503960366 2016-03-15          15384             1037              348
#  5 1503960366 2016-03-16          13498             1122              246
#  6 1503960366 2016-03-17          14027             1082              311
#  7 1503960366 2016-03-18          14544             1152              214
#  8 1503960366 2016-03-19          15424             1114              240
#  9 1503960366 2016-03-20          15128             1046              360
# 10 1503960366 2016-03-21          10020             1122              302
# # … with 1,881 more rows, and 3 more variables:
# #   fairly_active_minutes <int>, very_active_minutes <int>,
# #   calories <dbl>
```
…
Second of `date` get 4 values and it take many record in data, we can't join the `minuteSleep` with the `minuteActivityProcessed` data so we will analyze the `minuteSleep` as apart data

We need to query to explore does this difference have any impact on the analysis

```{r, eval = FALSE}
minuteSleep %>% 
  group_by(id, log_id, seconds = second(date)) %>% 
  summarise(min = min(date),
            max = max(date),
            date = as_date(min))
```

```{}
# # A tibble: 1,007 × 6
#            id      log_id seconds min                 max                
#         <dbl>       <dbl>   <dbl> <dttm>              <dttm>             
#  1 1503960366 11114919637      30 2016-03-13 02:39:30 2016-03-13 09:44:30
#  2 1503960366 11126343681       0 2016-03-14 01:32:00 2016-03-14 07:57:00
#  3 1503960366 11134971215       0 2016-03-15 02:36:00 2016-03-15 08:10:00
#  4 1503960366 11142197163       0 2016-03-16 03:12:00 2016-03-16 08:14:00
#  5 1503960366 11142197164       0 2016-03-16 19:43:00 2016-03-16 20:45:00
#  6 1503960366 11150938241       0 2016-03-17 01:16:00 2016-03-17 08:32:00
#  7 1503960366 11158035737       0 2016-03-18 01:36:00 2016-03-18 08:26:00
#  8 1503960366 11162426404      30 2016-03-19 00:08:30 2016-03-19 07:55:30
#  9 1503960366 11171977262       0 2016-03-20 01:08:00 2016-03-20 09:03:00
# 10 1503960366 11183536407       0 2016-03-21 01:08:00 2016-03-21 08:14:00
# # … with 997 more rows, and 1 more variable: date <date>
```


After review the result, conclude that the time is totally random, it have no correlation to another variable.

Now we find correlation of the `value` in the `minuteSleep` data with the `total_minutes_asleep` and `total_time_in_bed` in the `sleepDay` data

```{r, eval = FALSE}
minuteSleep %>% 
  group_by(id, log_id, value) %>% 
  summarise(count = n()) %>% 
  pivot_wider(names_from = value, values_from = count, names_prefix = "value_")
```

```{}
# # A tibble: 1,007 × 5
#            id      log_id value_1 value_2 value_3
#         <dbl>       <dbl>   <int>   <int>   <int>
#  1 1503960366 11114919637     411      15      NA
#  2 1503960366 11126343681     354      27       5
#  3 1503960366 11134971215     312      16       7
#  4 1503960366 11142197163     272      26       5
#  5 1503960366 11142197164      61       2      NA
#  6 1503960366 11150938241     402      34       1
#  7 1503960366 11158035737     379      26       6
#  8 1503960366 11162426404     447      20       1
#  9 1503960366 11171977262     469       7      NA
# 10 1503960366 11183536407     390      30       7
# # … with 997 more rows
```
…
```{}
# # A tibble: 790 × 5
# # Groups:   id [25]
#          id sleep_day  total_sleep_rec… total_minutes_a… total_time_in_b…
#       <dbl> <date>                <int>            <dbl>            <dbl>
#  1   1.50e9 2016-03-13                1              411              426
#  2   1.50e9 2016-03-14                1              354              386
#  3   1.50e9 2016-03-15                1              312              335
#  4   1.50e9 2016-03-16                2              333              366
#  5   1.50e9 2016-03-17                1              402              437
#  6   1.50e9 2016-03-18                1              379              411
#  7   1.50e9 2016-03-19                1              447              468
#  8   1.50e9 2016-03-20                1              469              476
#  9   1.50e9 2016-03-21                1              390              427
# 10   1.50e9 2016-03-23                1              281              297
# # … with 780 more rows
```
…
```{}
# # A tibble: 76,624 x 9
#        id activity_hour       intensity steps step_minutes active_minutes
#     <dbl> <dttm>                  <dbl> <dbl>        <dbl>          <int>
#  1 1.50e9 2016-03-12 00:00:00         0     0            0             60
#  2 1.50e9 2016-03-12 01:00:00         0     0            0             60
#  3 1.50e9 2016-03-12 02:00:00         0     0            0             60
#  4 1.50e9 2016-03-12 03:00:00         0     0            0             60
#  5 1.50e9 2016-03-12 04:00:00         0     0            0             60
#  6 1.50e9 2016-03-12 05:00:00         0     0            0             60
#  7 1.50e9 2016-03-12 06:00:00         0     0            0             60
#  8 1.50e9 2016-03-12 07:00:00         0     0            0             60
#  9 1.50e9 2016-03-12 08:00:00         0     0            0             60
# 10 1.50e9 2016-03-12 09:00:00         0     0            0             59
# # ... with 76,614 more rows, and 3 more variables: calories <dbl>,
# #   mets <dbl>, distance <dbl>
```
…
              values_fill = 0) %>% 
  mutate(total_steps = steps_0 + steps_1 + steps_2 + steps_3,
         total_calories = calories_0 + calories_1 + calories_2 + calories_3,
         total_mets = sum(mets_0 + mets_1 + mets_2 + mets_3),
         total_step_minutes = step_minutes_0 + step_minutes_1 + step_minutes_2 + step_minutes_3,
         total_distance = distance_0 + distance_1 + distance_2 + distance_3,
         week_days = wday(activity_hour, label = T, week_start = 1)) %>% 
  group_by(week_days, activity_hour = hour(activity_hour), id) %>% 
  summarise_all(list(mean)) %>% 
  group_by(week_days, activity_hour) %>% 
  summarise(across(!(id), list(average = mean))) %>% 
  mutate_if(is.numeric, ~round(., digits = 1))
```
```{}
# # A tibble: 168 x 31
#    week_days activity_hour steps_0_average steps_1_average
#    <ord>             <dbl>           <dbl>           <dbl>
#  1 Mon                   0             0              28.7
#  2 Mon                   1             0              13.6
#  3 Mon                   2             0               7.2
#  4 Mon                   3             0               5.6
#  5 Mon                   4             0              14.3
#  6 Mon                   5             0              33.8
#  7 Mon                   6             0             109. 
#  8 Mon                   7             0.1           259. 
#  9 Mon                   8             0.3           262. 
# 10 Mon                   9             0.1           273. 
# # ... with 158 more rows, and 27 more variables: steps_2_average <dbl>,
# #   steps_3_average <dbl>, calories_0_average <dbl>,
# #   calories_1_average <dbl>, calories_2_average <dbl>,
# #   calories_3_average <dbl>, mets_0_average <dbl>,
# #   mets_1_average <dbl>, mets_2_average <dbl>, mets_3_average <dbl>,
# #   step_minutes_0_average <dbl>, step_minutes_1_average <dbl>,
# #   step_minutes_2_average <dbl>, step_minutes_3_average <dbl>, ...
```
…
